EESchema Schematic File Version 2
LIBS:power
LIBS:device
LIBS:relays
LIBS:motors
LIBS:transistors
LIBS:conn
LIBS:linear
LIBS:regul
LIBS:74xx
LIBS:cmos4000
LIBS:adc-dac
LIBS:memory
LIBS:xilinx
LIBS:microcontrollers
LIBS:dsp
LIBS:microchip
LIBS:analog_switches
LIBS:motorola
LIBS:texas
LIBS:intel
LIBS:audio
LIBS:interface
LIBS:digital-audio
LIBS:philips
LIBS:display
LIBS:cypress
LIBS:siliconi
LIBS:opto
LIBS:atmel
LIBS:contrib
LIBS:valves
LIBS:arm-swd-header
LIBS:at25sf041
LIBS:at42qt1011
LIBS:BMD-300
LIBS:bq24074
LIBS:cat25512
LIBS:dcdc
LIBS:drv2603
LIBS:EMW3165
LIBS:encoder-switch
LIBS:ESP8266
LIBS:fiducial
LIBS:ft231x
LIBS:ldo
LIBS:logic
LIBS:lsm6ds3
LIBS:mcp73831
LIBS:MDBT40
LIBS:net-tie
LIBS:NTR4101P
LIBS:pin_array_17x1
LIBS:STC3100
LIBS:swd
LIBS:USB_A
LIBS:USB_B_MICRO
LIBS:usblc6
LIBS:ws2812b
LIBS:switches
LIBS:ch340
LIBS:espswitch-cache
EELAYER 25 0
EELAYER END
$Descr A4 11693 8268
encoding utf-8
Sheet 1 1
Title ""
Date ""
Rev ""
Comp ""
Comment1 ""
Comment2 ""
Comment3 ""
Comment4 ""
$EndDescr
$Comp
L ESP-12F U2
U 1 1 5A3E3F20
P 2495 5230
F 0 "U2" H 2495 5130 50  0000 C CNN
F 1 "ESP-12F" H 2495 5330 50  0000 C CNN
F 2 "ESP8266:ESP-12E_SMD" H 2495 5230 50  0001 C CNN
F 3 "" H 2495 5230 50  0001 C CNN
	1    2495 5230
	1    0    0    -1  
$EndComp
$Comp
L MCP73831 U1
U 1 1 5A6AD3D0
P 2120 1250
F 0 "U1" H 1920 790 60  0000 C CNN
F 1 "MCP73831" H 2230 790 40  0000 C CNN
F 2 "TO_SOT_Packages_SMD:SOT-23-5" H 2120 900 60  0001 C CNN
F 3 "" H 2120 900 60  0000 C CNN
	1    2120 1250
	1    0    0    -1  
$EndComp
$Comp
L C_Small C2
U 1 1 5A6AD4D5
P 1050 1310
F 0 "C2" H 1060 1380 50  0000 L CNN
F 1 "10uF" H 1060 1230 50  0000 L CNN
F 2 "Capacitors_SMD:C_0805" H 1050 1310 50  0001 C CNN
F 3 "" H 1050 1310 50  0001 C CNN
	1    1050 1310
	1    0    0    -1  
$EndComp
$Comp
L C_Small C3
U 1 1 5A6AD51F
P 3160 1200
F 0 "C3" H 3170 1270 50  0000 L CNN
F 1 "10uF" H 3170 1120 50  0000 L CNN
F 2 "Capacitors_SMD:C_0805" H 3160 1200 50  0001 C CNN
F 3 "" H 3160 1200 50  0001 C CNN
	1    3160 1200
	1    0    0    -1  
$EndComp
$Comp
L Battery_Cell BT1
U 1 1 5A6AD5F3
P 3550 1250
F 0 "BT1" H 3650 1350 50  0000 L CNN
F 1 "LIR2450" H 3650 1250 50  0000 L CNN
F 2 "Battery_Holders:Keystone_103_1x20mm-CoinCell" V 3550 1310 50  0001 C CNN
F 3 "" V 3550 1310 50  0001 C CNN
	1    3550 1250
	1    0    0    -1  
$EndComp
$Comp
L R_Small R4
U 1 1 5A6AD7AE
P 2840 1420
F 0 "R4" H 2870 1440 50  0000 L CNN
F 1 "10K" H 2870 1380 50  0000 L CNN
F 2 "Resistors_SMD:R_0805" H 2840 1420 50  0001 C CNN
F 3 "" H 2840 1420 50  0001 C CNN
	1    2840 1420
	1    0    0    -1  
$EndComp
$Comp
L GND #PWR01
U 1 1 5A6AD87B
P 2840 1980
F 0 "#PWR01" H 2840 1730 50  0001 C CNN
F 1 "GND" H 2840 1830 50  0000 C CNN
F 2 "" H 2840 1980 50  0001 C CNN
F 3 "" H 2840 1980 50  0001 C CNN
	1    2840 1980
	1    0    0    -1  
$EndComp
$Comp
L GND #PWR02
U 1 1 5A6AD934
P 3550 1980
F 0 "#PWR02" H 3550 1730 50  0001 C CNN
F 1 "GND" H 3550 1830 50  0000 C CNN
F 2 "" H 3550 1980 50  0001 C CNN
F 3 "" H 3550 1980 50  0001 C CNN
	1    3550 1980
	1    0    0    -1  
$EndComp
$Comp
L GND #PWR03
U 1 1 5A6ADA73
P 1050 1980
F 0 "#PWR03" H 1050 1730 50  0001 C CNN
F 1 "GND" H 1050 1830 50  0000 C CNN
F 2 "" H 1050 1980 50  0001 C CNN
F 3 "" H 1050 1980 50  0001 C CNN
	1    1050 1980
	1    0    0    -1  
$EndComp
$Comp
L LED_Small D1
U 1 1 5A6ADCC0
P 1480 1450
F 0 "D1" H 1430 1575 50  0000 L CNN
F 1 "LED_Small" H 1305 1350 50  0001 L CNN
F 2 "LEDs:LED_0805_HandSoldering" V 1480 1450 50  0001 C CNN
F 3 "" V 1480 1450 50  0001 C CNN
	1    1480 1450
	0    -1   -1   0   
$EndComp
$Comp
L R_Small R3
U 1 1 5A6ADD7F
P 1480 1200
F 0 "R3" H 1510 1220 50  0000 L CNN
F 1 "200R" H 1510 1160 50  0000 L CNN
F 2 "Resistors_SMD:R_0805" H 1480 1200 50  0001 C CNN
F 3 "" H 1480 1200 50  0001 C CNN
	1    1480 1200
	1    0    0    -1  
$EndComp
$Comp
L TPS799 U4
U 1 1 5A6AE215
P 7710 1220
F 0 "U4" H 7560 920 40  0000 C CNN
F 1 "ME6211C33M5G" H 7720 810 40  0000 C CNN
F 2 "TO_SOT_Packages_SMD:SOT-23-5" H 7710 1220 35  0001 C CIN
F 3 "" H 7710 1220 60  0000 C CNN
	1    7710 1220
	1    0    0    -1  
$EndComp
$Comp
L C_Small C5
U 1 1 5A6AE44C
P 6830 1200
F 0 "C5" H 6840 1270 50  0000 L CNN
F 1 "1uF" H 6840 1120 50  0000 L CNN
F 2 "Capacitors_SMD:C_0805" H 6830 1200 50  0001 C CNN
F 3 "" H 6830 1200 50  0001 C CNN
	1    6830 1200
	1    0    0    -1  
$EndComp
$Comp
L GND #PWR04
U 1 1 5A6AE560
P 6830 1660
F 0 "#PWR04" H 6830 1410 50  0001 C CNN
F 1 "GND" H 6830 1510 50  0000 C CNN
F 2 "" H 6830 1660 50  0001 C CNN
F 3 "" H 6830 1660 50  0001 C CNN
	1    6830 1660
	1    0    0    -1  
$EndComp
NoConn ~ 8060 1420
$Comp
L C_Small C7
U 1 1 5A6AEAC1
P 8290 1200
F 0 "C7" H 8300 1270 50  0000 L CNN
F 1 "1uF" H 8300 1120 50  0000 L CNN
F 2 "Capacitors_SMD:C_0805" H 8290 1200 50  0001 C CNN
F 3 "" H 8290 1200 50  0001 C CNN
	1    8290 1200
	1    0    0    -1  
$EndComp
$Comp
L GND #PWR05
U 1 1 5A6AEAC7
P 8290 1660
F 0 "#PWR05" H 8290 1410 50  0001 C CNN
F 1 "GND" H 8290 1510 50  0000 C CNN
F 2 "" H 8290 1660 50  0001 C CNN
F 3 "" H 8290 1660 50  0001 C CNN
	1    8290 1660
	1    0    0    -1  
$EndComp
$Comp
L Q_PMOS_GSD Q1
U 1 1 5A6AF1CC
P 4800 1150
F 0 "Q1" V 5050 1120 50  0000 L CNN
F 1 "PMOS" V 5140 1060 50  0000 L CNN
F 2 "TO_SOT_Packages_SMD:SOT-23" H 5000 1250 50  0001 C CNN
F 3 "" H 4800 1150 50  0001 C CNN
	1    4800 1150
	0    1    -1   0   
$EndComp
$Comp
L R_Small R7
U 1 1 5A6AF599
P 4290 1240
F 0 "R7" H 4320 1260 50  0000 L CNN
F 1 "10K" H 4320 1200 50  0000 L CNN
F 2 "Resistors_SMD:R_0805" H 4290 1240 50  0001 C CNN
F 3 "" H 4290 1240 50  0001 C CNN
	1    4290 1240
	1    0    0    -1  
$EndComp
$Comp
L Q_NMOS_GSD Q2
U 1 1 5A6AF904
P 4900 1700
F 0 "Q2" H 5100 1750 50  0000 L CNN
F 1 "NMOS" H 5100 1650 50  0000 L CNN
F 2 "TO_SOT_Packages_SMD:SOT-23" H 5100 1800 50  0001 C CNN
F 3 "" H 4900 1700 50  0001 C CNN
	1    4900 1700
	-1   0    0    -1  
$EndComp
$Comp
L GND #PWR06
U 1 1 5A6AFC60
P 4800 1990
F 0 "#PWR06" H 4800 1740 50  0001 C CNN
F 1 "GND" H 4800 1840 50  0000 C CNN
F 2 "" H 4800 1990 50  0001 C CNN
F 3 "" H 4800 1990 50  0001 C CNN
	1    4800 1990
	1    0    0    -1  
$EndComp
$Comp
L R_Small R9
U 1 1 5A6AFF78
P 5140 1350
F 0 "R9" H 5170 1370 50  0000 L CNN
F 1 "10K" H 5170 1310 50  0000 L CNN
F 2 "Resistors_SMD:R_0805" H 5140 1350 50  0001 C CNN
F 3 "" H 5140 1350 50  0001 C CNN
	1    5140 1350
	1    0    0    -1  
$EndComp
$Comp
L D_Schottky_Small D4
U 1 1 5A6B0540
P 5380 1050
F 0 "D4" H 5330 1130 50  0000 L CNN
F 1 "D_Schottky_Small" H 5100 970 50  0001 L CNN
F 2 "Diodes_SMD:D_SOD-123" V 5380 1050 50  0001 C CNN
F 3 "" V 5380 1050 50  0001 C CNN
	1    5380 1050
	-1   0    0    1   
$EndComp
$Comp
L SW_Push_Dual SW1
U 1 1 5A6AE453
P 4100 2540
F 0 "SW1" H 4025 2730 50  0000 L CNN
F 1 "SW_Push_Dual" H 4100 2270 50  0001 C CNN
F 2 "modules:6mm-push-button" H 4100 2740 50  0001 C CNN
F 3 "" H 4100 2740 50  0001 C CNN
	1    4100 2540
	1    0    0    -1  
$EndComp
$Comp
L +BATT #PWR07
U 1 1 5A6AE59C
P 3900 850
F 0 "#PWR07" H 3900 700 50  0001 C CNN
F 1 "+BATT" H 3900 990 50  0000 C CNN
F 2 "" H 3900 850 50  0001 C CNN
F 3 "" H 3900 850 50  0001 C CNN
	1    3900 850 
	1    0    0    -1  
$EndComp
$Comp
L +BATT #PWR08
U 1 1 5A6AE7AA
P 3540 2540
F 0 "#PWR08" H 3540 2390 50  0001 C CNN
F 1 "+BATT" H 3540 2680 50  0000 C CNN
F 2 "" H 3540 2540 50  0001 C CNN
F 3 "" H 3540 2540 50  0001 C CNN
	1    3540 2540
	1    0    0    -1  
$EndComp
$Comp
L D_Schottky_Small D3
U 1 1 5A6AEC77
P 4820 2640
F 0 "D3" H 4770 2720 50  0000 L CNN
F 1 "D_Schottky_Small" H 4540 2560 50  0001 L CNN
F 2 "Diodes_SMD:D_SOD-123" V 4820 2640 50  0001 C CNN
F 3 "" V 4820 2640 50  0001 C CNN
	1    4820 2640
	-1   0    0    1   
$EndComp
$Comp
L +5V #PWR09
U 1 1 5A6AF249
P 830 910
F 0 "#PWR09" H 830 760 50  0001 C CNN
F 1 "+5V" H 830 1050 50  0000 C CNN
F 2 "" H 830 910 50  0001 C CNN
F 3 "" H 830 910 50  0001 C CNN
	1    830  910 
	1    0    0    -1  
$EndComp
$Comp
L VCC #PWR010
U 1 1 5A6AF52C
P 5580 860
F 0 "#PWR010" H 5580 710 50  0001 C CNN
F 1 "VCC" H 5580 1010 50  0000 C CNN
F 2 "" H 5580 860 50  0001 C CNN
F 3 "" H 5580 860 50  0001 C CNN
	1    5580 860 
	1    0    0    -1  
$EndComp
$Comp
L VCC #PWR011
U 1 1 5A6AF8F1
P 6465 890
F 0 "#PWR011" H 6465 740 50  0001 C CNN
F 1 "VCC" H 6465 1040 50  0000 C CNN
F 2 "" H 6465 890 50  0001 C CNN
F 3 "" H 6465 890 50  0001 C CNN
	1    6465 890 
	1    0    0    -1  
$EndComp
$Comp
L +3.3V #PWR012
U 1 1 5A6AFB4B
P 8520 900
F 0 "#PWR012" H 8520 750 50  0001 C CNN
F 1 "+3.3V" H 8520 1040 50  0000 C CNN
F 2 "" H 8520 900 50  0001 C CNN
F 3 "" H 8520 900 50  0001 C CNN
	1    8520 900 
	1    0    0    -1  
$EndComp
Text GLabel 4650 3485 3    60   Input ~ 0
BUTTON
Text GLabel 4990 3000 3    60   Input ~ 0
PWR
$Comp
L +3.3V #PWR013
U 1 1 5A6B098D
P 840 4640
F 0 "#PWR013" H 840 4490 50  0001 C CNN
F 1 "+3.3V" H 840 4780 50  0000 C CNN
F 2 "" H 840 4640 50  0001 C CNN
F 3 "" H 840 4640 50  0001 C CNN
	1    840  4640
	1    0    0    -1  
$EndComp
NoConn ~ 1595 5230
$Comp
L GND #PWR014
U 1 1 5A6B0F81
P 840 6300
F 0 "#PWR014" H 840 6050 50  0001 C CNN
F 1 "GND" H 840 6150 50  0000 C CNN
F 2 "" H 840 6300 50  0001 C CNN
F 3 "" H 840 6300 50  0001 C CNN
	1    840  6300
	1    0    0    -1  
$EndComp
$Comp
L C_Small C1
U 1 1 5A6B1214
P 840 6035
F 0 "C1" H 850 6105 50  0000 L CNN
F 1 "1uF" H 850 5955 50  0000 L CNN
F 2 "Capacitors_SMD:C_0805" H 840 6035 50  0001 C CNN
F 3 "" H 840 6035 50  0001 C CNN
	1    840  6035
	1    0    0    -1  
$EndComp
$Comp
L +3.3V #PWR015
U 1 1 5A6B236F
P 4165 4640
F 0 "#PWR015" H 4165 4490 50  0001 C CNN
F 1 "+3.3V" H 4165 4780 50  0000 C CNN
F 2 "" H 4165 4640 50  0001 C CNN
F 3 "" H 4165 4640 50  0001 C CNN
	1    4165 4640
	1    0    0    -1  
$EndComp
$Comp
L GND #PWR016
U 1 1 5A6B290D
P 4165 6300
F 0 "#PWR016" H 4165 6050 50  0001 C CNN
F 1 "GND" H 4165 6150 50  0000 C CNN
F 2 "" H 4165 6300 50  0001 C CNN
F 3 "" H 4165 6300 50  0001 C CNN
	1    4165 6300
	1    0    0    -1  
$EndComp
Text GLabel 3555 4930 2    39   Input ~ 0
U_RXD
Text GLabel 3555 5030 2    39   Input ~ 0
U_TXD
Text GLabel 3395 5330 2    39   Input ~ 0
GPIO0
NoConn ~ 2245 6130
NoConn ~ 2345 6130
NoConn ~ 2445 6130
NoConn ~ 2545 6130
NoConn ~ 2645 6130
NoConn ~ 2745 6130
Text GLabel 3395 5230 2    39   Input ~ 0
BUTTON
Text GLabel 3555 5130 2    39   Input ~ 0
PWR
$Comp
L R_Small R13
U 1 1 5A6B6183
P 6065 1220
F 0 "R13" H 6130 1260 50  0000 L CNN
F 1 "200R" H 6125 1180 50  0000 L CNN
F 2 "Resistors_SMD:R_0805" H 6065 1220 50  0001 C CNN
F 3 "" H 6065 1220 50  0001 C CNN
	1    6065 1220
	1    0    0    -1  
$EndComp
$Comp
L LED_Small D5
U 1 1 5A6B653C
P 6065 1450
F 0 "D5" H 6015 1575 50  0000 L CNN
F 1 "LED_Small" H 5890 1350 50  0001 L CNN
F 2 "LEDs:LED_0805_HandSoldering" V 6065 1450 50  0001 C CNN
F 3 "" V 6065 1450 50  0001 C CNN
	1    6065 1450
	0    -1   -1   0   
$EndComp
$Comp
L GND #PWR017
U 1 1 5A6B6AC2
P 6065 1660
F 0 "#PWR017" H 6065 1410 50  0001 C CNN
F 1 "GND" H 6065 1510 50  0000 C CNN
F 2 "" H 6065 1660 50  0001 C CNN
F 3 "" H 6065 1660 50  0001 C CNN
	1    6065 1660
	1    0    0    -1  
$EndComp
$Comp
L R_Small R10
U 1 1 5A6BB70B
P 5385 2035
F 0 "R10" H 5415 2055 50  0000 L CNN
F 1 "100K" H 5415 1995 50  0000 L CNN
F 2 "Resistors_SMD:R_0805" H 5385 2035 50  0001 C CNN
F 3 "" H 5385 2035 50  0001 C CNN
	1    5385 2035
	1    0    0    -1  
$EndComp
$Comp
L GND #PWR018
U 1 1 5A6BBAB2
P 5385 2650
F 0 "#PWR018" H 5385 2400 50  0001 C CNN
F 1 "GND" H 5385 2500 50  0000 C CNN
F 2 "" H 5385 2650 50  0001 C CNN
F 3 "" H 5385 2650 50  0001 C CNN
	1    5385 2650
	1    0    0    -1  
$EndComp
$Comp
L R_Small R5
U 1 1 5A75B6E4
P 4075 3260
F 0 "R5" V 4070 3225 39  0000 L CNN
F 1 "10K" V 4005 3210 39  0000 L CNN
F 2 "Resistors_SMD:R_0805" H 4075 3260 50  0001 C CNN
F 3 "" H 4075 3260 50  0001 C CNN
	1    4075 3260
	0    -1   -1   0   
$EndComp
$Comp
L GND #PWR019
U 1 1 5A75B991
P 3560 3790
F 0 "#PWR019" H 3560 3540 50  0001 C CNN
F 1 "GND" H 3560 3640 50  0000 C CNN
F 2 "" H 3560 3790 50  0001 C CNN
F 3 "" H 3560 3790 50  0001 C CNN
	1    3560 3790
	1    0    0    -1  
$EndComp
Text GLabel 1180 4930 0    39   Input ~ 0
RST
NoConn ~ 1595 5030
NoConn ~ 1595 5430
NoConn ~ 1595 5530
$Comp
L +5V #PWR020
U 1 1 5A75E723
P 6255 880
F 0 "#PWR020" H 6255 730 50  0001 C CNN
F 1 "+5V" H 6255 1020 50  0000 C CNN
F 2 "" H 6255 880 50  0001 C CNN
F 3 "" H 6255 880 50  0001 C CNN
	1    6255 880 
	1    0    0    -1  
$EndComp
$Comp
L R_Small R8
U 1 1 5A99F87C
P 4650 3010
F 0 "R8" H 4680 3030 50  0000 L CNN
F 1 "1K" H 4680 2970 50  0000 L CNN
F 2 "Resistors_SMD:R_0805" H 4650 3010 50  0001 C CNN
F 3 "" H 4650 3010 50  0001 C CNN
	1    4650 3010
	1    0    0    -1  
$EndComp
$Comp
L CH340C U3
U 1 1 5A9A1650
P 5975 4895
F 0 "U3" H 5975 4895 60  0000 C CNN
F 1 "CH340C" H 5975 5395 60  0000 C CNN
F 2 "SMD_Packages:SO-16-N" H 5975 4895 60  0001 C CNN
F 3 "" H 5975 4895 60  0001 C CNN
	1    5975 4895
	1    0    0    -1  
$EndComp
NoConn ~ 5475 5195
NoConn ~ 5475 5295
NoConn ~ 6475 4995
NoConn ~ 6475 5095
NoConn ~ 6475 5195
NoConn ~ 6475 5295
NoConn ~ 6475 4695
$Comp
L MICRO-B_USB P1
U 1 1 5A9A1B13
P 4800 4795
F 0 "P1" H 4800 4495 50  0000 C CNN
F 1 "MICRO-B_USB" H 4800 5095 50  0001 C CNN
F 2 "modules:USB_MICRO_B_MOLEX-0473460001" H 4800 4795 60  0001 C CNN
F 3 "" H 4800 4795 60  0000 C CNN
	1    4800 4795
	1    0    0    1   
$EndComp
NoConn ~ 5000 4695
$Comp
L +5V #PWR021
U 1 1 5A9A24AD
P 4540 4635
F 0 "#PWR021" H 4540 4485 50  0001 C CNN
F 1 "+5V" H 4540 4775 50  0000 C CNN
F 2 "" H 4540 4635 50  0001 C CNN
F 3 "" H 4540 4635 50  0001 C CNN
	1    4540 4635
	1    0    0    -1  
$EndComp
$Comp
L +5V #PWR022
U 1 1 5A9A287A
P 7030 4470
F 0 "#PWR022" H 7030 4320 50  0001 C CNN
F 1 "+5V" H 7030 4610 50  0000 C CNN
F 2 "" H 7030 4470 50  0001 C CNN
F 3 "" H 7030 4470 50  0001 C CNN
	1    7030 4470
	1    0    0    -1  
$EndComp
$Comp
L C_Small C6
U 1 1 5A9A2B3E
P 7030 4780
F 0 "C6" H 7040 4850 50  0000 L CNN
F 1 "1uF" H 7040 4700 50  0000 L CNN
F 2 "Capacitors_SMD:C_1812_HandSoldering" H 7030 4780 50  0001 C CNN
F 3 "" H 7030 4780 50  0001 C CNN
	1    7030 4780
	1    0    0    -1  
$EndComp
$Comp
L GND #PWR023
U 1 1 5A9A2F87
P 7030 5010
F 0 "#PWR023" H 7030 4760 50  0001 C CNN
F 1 "GND" H 7030 4860 50  0000 C CNN
F 2 "" H 7030 5010 50  0001 C CNN
F 3 "" H 7030 5010 50  0001 C CNN
	1    7030 5010
	1    0    0    -1  
$EndComp
Text GLabel 6475 4795 2    39   Input ~ 0
RTS
Text GLabel 6475 4895 2    39   Input ~ 0
DTR
Text GLabel 5475 4595 0    39   Input ~ 0
U_TXD
Text GLabel 5475 4695 0    39   Input ~ 0
U_RXD
$Comp
L C_Small C4
U 1 1 5A9A4708
P 5340 4895
F 0 "C4" V 5380 4940 39  0000 L CNN
F 1 "0.1uF" V 5280 4935 39  0000 L CNN
F 2 "Capacitors_SMD:C_0805" H 5340 4895 50  0001 C CNN
F 3 "" H 5340 4895 50  0001 C CNN
	1    5340 4895
	0    1    1    0   
$EndComp
$Comp
L Q_NPN_BEC Q4
U 1 1 5A9A5280
P 5190 6575
F 0 "Q4" H 5390 6625 50  0000 L CNN
F 1 "Q_NPN_BEC" H 5390 6525 50  0001 L CNN
F 2 "TO_SOT_Packages_SMD:SOT-23" H 5390 6675 50  0001 C CNN
F 3 "" H 5190 6575 50  0001 C CNN
	1    5190 6575
	-1   0    0    1   
$EndComp
$Comp
L Q_NPN_BEC Q3
U 1 1 5A9A54B0
P 5190 5935
F 0 "Q3" H 5390 5985 50  0000 L CNN
F 1 "Q_NPN_BEC" H 5390 5885 50  0001 L CNN
F 2 "TO_SOT_Packages_SMD:SOT-23" H 5390 6035 50  0001 C CNN
F 3 "" H 5190 5935 50  0001 C CNN
	1    5190 5935
	-1   0    0    -1  
$EndComp
$Comp
L R_Small R11
U 1 1 5A9A5911
P 5580 5935
F 0 "R11" V 5575 5900 39  0000 L CNN
F 1 "10K" V 5510 5885 39  0000 L CNN
F 2 "Resistors_SMD:R_0805" H 5580 5935 50  0001 C CNN
F 3 "" H 5580 5935 50  0001 C CNN
	1    5580 5935
	0    -1   -1   0   
$EndComp
$Comp
L R_Small R12
U 1 1 5A9A5C8F
P 5580 6575
F 0 "R12" V 5575 6540 39  0000 L CNN
F 1 "10K" V 5510 6525 39  0000 L CNN
F 2 "Resistors_SMD:R_0805" H 5580 6575 50  0001 C CNN
F 3 "" H 5580 6575 50  0001 C CNN
	1    5580 6575
	0    -1   -1   0   
$EndComp
Text GLabel 5825 5935 2    39   Input ~ 0
DTR
Text GLabel 5825 6575 2    39   Input ~ 0
RTS
Text GLabel 4730 5735 0    39   Input ~ 0
RST
Text GLabel 4730 6775 0    39   Input ~ 0
GPIO0
$Comp
L Conn_01x01 J1
U 1 1 5A9A83A7
P 7010 2840
F 0 "J1" H 7010 2940 50  0000 C CNN
F 1 "Conn_01x01" H 7010 2740 50  0001 C CNN
F 2 "Mounting_Holes:MountingHole_2.5mm_Pad" H 7010 2840 50  0001 C CNN
F 3 "" H 7010 2840 50  0001 C CNN
	1    7010 2840
	1    0    0    -1  
$EndComp
$Comp
L Conn_01x01 J2
U 1 1 5A9A8B80
P 7010 3040
F 0 "J2" H 7010 3140 50  0000 C CNN
F 1 "Conn_01x01" H 7010 2940 50  0001 C CNN
F 2 "Mounting_Holes:MountingHole_2.5mm_Pad" H 7010 3040 50  0001 C CNN
F 3 "" H 7010 3040 50  0001 C CNN
	1    7010 3040
	1    0    0    -1  
$EndComp
$Comp
L Conn_01x01 J3
U 1 1 5A9A8C06
P 7010 3240
F 0 "J3" H 7010 3340 50  0000 C CNN
F 1 "Conn_01x01" H 7010 3140 50  0001 C CNN
F 2 "Mounting_Holes:MountingHole_2.5mm_Pad" H 7010 3240 50  0001 C CNN
F 3 "" H 7010 3240 50  0001 C CNN
	1    7010 3240
	1    0    0    -1  
$EndComp
$Comp
L Conn_01x01 J4
U 1 1 5A9A8C8B
P 7010 3440
F 0 "J4" H 7010 3540 50  0000 C CNN
F 1 "Conn_01x01" H 7010 3340 50  0001 C CNN
F 2 "Mounting_Holes:MountingHole_2.5mm_Pad" H 7010 3440 50  0001 C CNN
F 3 "" H 7010 3440 50  0001 C CNN
	1    7010 3440
	1    0    0    -1  
$EndComp
Text Notes 6700 2600 0    50   ~ 0
Mounting holes
$Comp
L SW_Push SW2
U 1 1 5A9A9879
P 1680 4000
F 0 "SW2" H 1730 4100 50  0000 L CNN
F 1 "SW_Push" H 1680 3940 50  0001 C CNN
F 2 "modules:smd-push-button-3x4x2mm-2pin" H 1680 4200 50  0001 C CNN
F 3 "" H 1680 4200 50  0001 C CNN
	1    1680 4000
	1    0    0    -1  
$EndComp
$Comp
L GND #PWR024
U 1 1 5A9A9998
P 1960 4160
F 0 "#PWR024" H 1960 3910 50  0001 C CNN
F 1 "GND" H 1960 4010 50  0000 C CNN
F 2 "" H 1960 4160 50  0001 C CNN
F 3 "" H 1960 4160 50  0001 C CNN
	1    1960 4160
	1    0    0    -1  
$EndComp
NoConn ~ 1595 5330
$Comp
L GND #PWR025
U 1 1 5A9ACC94
P 5185 4140
F 0 "#PWR025" H 5185 3890 50  0001 C CNN
F 1 "GND" H 5185 3990 50  0000 C CNN
F 2 "" H 5185 4140 50  0001 C CNN
F 3 "" H 5185 4140 50  0001 C CNN
	1    5185 4140
	1    0    0    -1  
$EndComp
$Comp
L SW_Push SW3
U 1 1 5A9C6C3C
P 5700 2035
F 0 "SW3" H 5750 2135 50  0000 L CNN
F 1 "SW_Push" H 5700 1975 50  0001 C CNN
F 2 "modules:smd-push-button-3x4x2mm-2pin" H 5700 2235 50  0001 C CNN
F 3 "" H 5700 2235 50  0001 C CNN
	1    5700 2035
	0    1    1    0   
$EndComp
Wire Wire Line
	2670 1050 4600 1050
Wire Wire Line
	2670 1300 2840 1300
Wire Wire Line
	2840 1300 2840 1320
Wire Wire Line
	2840 1520 2840 1980
Wire Wire Line
	2840 1550 2670 1550
Connection ~ 2840 1550
Wire Wire Line
	3160 1100 3160 1050
Connection ~ 3160 1050
Wire Wire Line
	3550 1350 3550 1980
Wire Wire Line
	3160 1300 3160 1410
Wire Wire Line
	3160 1410 3550 1410
Connection ~ 3550 1410
Wire Wire Line
	1050 1980 1050 1410
Wire Wire Line
	1050 1210 1050 1050
Wire Wire Line
	830  1050 1570 1050
Wire Wire Line
	1480 1100 1480 1050
Connection ~ 1480 1050
Wire Wire Line
	1480 1300 1480 1350
Wire Wire Line
	1480 1550 1570 1550
Wire Wire Line
	6830 1300 6830 1660
Wire Wire Line
	6830 1020 6830 1100
Wire Wire Line
	6065 1020 7360 1020
Wire Wire Line
	6830 1420 7360 1420
Connection ~ 6830 1420
Wire Wire Line
	7150 1020 7150 1220
Wire Wire Line
	7150 1220 7360 1220
Connection ~ 7150 1020
Wire Wire Line
	8060 1020 8520 1020
Wire Wire Line
	8290 1660 8290 1300
Wire Wire Line
	8290 1100 8290 1020
Connection ~ 8290 1020
Connection ~ 6830 1020
Connection ~ 1050 1050
Connection ~ 3550 1050
Wire Wire Line
	4290 1140 4290 1050
Connection ~ 4290 1050
Wire Wire Line
	4800 1350 4800 1500
Wire Wire Line
	4290 1340 4290 1430
Wire Wire Line
	4290 1430 4800 1430
Connection ~ 4800 1430
Wire Wire Line
	4800 1900 4800 1990
Wire Wire Line
	5000 1050 5280 1050
Wire Wire Line
	5140 1050 5140 1250
Wire Wire Line
	5140 2640 5140 1450
Wire Wire Line
	5140 1700 5100 1700
Connection ~ 5140 1050
Wire Wire Line
	3900 850  3900 1050
Connection ~ 3900 1050
Wire Wire Line
	3900 2540 3730 2540
Wire Wire Line
	3730 2540 3730 2740
Wire Wire Line
	3730 2740 3900 2740
Wire Wire Line
	3540 2540 3540 2640
Wire Wire Line
	3540 2640 3730 2640
Connection ~ 3730 2640
Wire Wire Line
	4300 2540 4530 2540
Wire Wire Line
	4530 2540 4530 2740
Wire Wire Line
	4530 2740 4300 2740
Wire Wire Line
	4530 2640 4720 2640
Connection ~ 4530 2640
Wire Wire Line
	4920 2640 5140 2640
Connection ~ 5140 1700
Wire Wire Line
	830  910  830  1050
Wire Wire Line
	5480 1050 5580 1050
Wire Wire Line
	5580 1050 5580 860 
Wire Wire Line
	8520 1020 8520 900 
Wire Wire Line
	4990 3000 4990 2640
Connection ~ 4990 2640
Wire Wire Line
	840  4640 840  5935
Wire Wire Line
	840  5630 1595 5630
Wire Wire Line
	840  6135 840  6300
Connection ~ 840  5630
Wire Wire Line
	840  5130 1595 5130
Connection ~ 840  5130
Wire Wire Line
	3395 5630 4165 5630
Wire Wire Line
	4165 5530 4165 6300
Wire Wire Line
	4165 4640 4165 5430
Wire Wire Line
	3555 4930 3395 4930
Wire Wire Line
	3555 5030 3395 5030
Wire Wire Line
	3395 5130 3555 5130
Wire Wire Line
	6065 1660 6065 1550
Wire Wire Line
	6065 1350 6065 1320
Wire Wire Line
	6065 1120 6065 1020
Wire Wire Line
	6465 890  6465 1020
Connection ~ 6465 1020
Wire Wire Line
	5385 2135 5385 2650
Wire Wire Line
	5385 1935 5385 1835
Wire Wire Line
	5140 1835 5700 1835
Connection ~ 5140 1835
Wire Wire Line
	4165 5430 3395 5430
Wire Wire Line
	3395 5530 4165 5530
Connection ~ 4165 5630
Wire Wire Line
	3560 3790 3560 3260
Wire Wire Line
	6255 880  6255 1020
Connection ~ 6255 1020
Wire Wire Line
	3560 3260 3975 3260
Wire Wire Line
	4650 3110 4650 3485
Wire Wire Line
	5000 4795 5160 4795
Wire Wire Line
	5160 4795 5160 4995
Wire Wire Line
	5160 4995 5475 4995
Wire Wire Line
	5000 4895 5115 4895
Wire Wire Line
	5115 4895 5115 5095
Wire Wire Line
	5115 5095 5475 5095
Wire Wire Line
	4540 4635 4540 5150
Wire Wire Line
	4540 5150 5070 5150
Wire Wire Line
	5070 5150 5070 4995
Wire Wire Line
	5070 4995 5000 4995
Wire Wire Line
	6475 4595 7030 4595
Wire Wire Line
	7030 4470 7030 4680
Connection ~ 7030 4595
Wire Wire Line
	7030 4880 7030 5010
Wire Wire Line
	5000 4595 5200 4595
Wire Wire Line
	5200 4595 5200 4895
Wire Wire Line
	5200 4795 5475 4795
Wire Wire Line
	5440 4895 5475 4895
Wire Wire Line
	5200 4895 5240 4895
Connection ~ 5200 4795
Wire Wire Line
	5390 5935 5480 5935
Wire Wire Line
	5390 6575 5480 6575
Wire Wire Line
	4730 6775 5090 6775
Wire Wire Line
	4730 5735 5090 5735
Wire Wire Line
	5680 5935 5825 5935
Wire Wire Line
	5680 6575 5825 6575
Wire Wire Line
	5090 6135 5390 6350
Wire Wire Line
	5390 6350 5750 6350
Wire Wire Line
	5750 6350 5750 6575
Connection ~ 5750 6575
Wire Wire Line
	5090 6375 5395 6165
Wire Wire Line
	5395 6165 5750 6165
Wire Wire Line
	5750 6165 5750 5935
Connection ~ 5750 5935
Wire Wire Line
	1960 4000 1960 4160
Wire Wire Line
	1400 4000 1400 4930
Wire Wire Line
	1400 4000 1480 4000
Wire Wire Line
	1880 4000 1960 4000
Wire Wire Line
	5080 4055 5185 4055
Wire Wire Line
	5185 4055 5185 4140
Wire Wire Line
	5080 4595 5080 4055
Connection ~ 5080 4595
Connection ~ 5385 1835
Wire Wire Line
	5700 2235 5385 2235
Connection ~ 5385 2235
Wire Wire Line
	4650 2640 4650 2910
Connection ~ 4650 2640
Wire Wire Line
	4175 3260 4650 3260
Connection ~ 4650 3260
Wire Wire Line
	1180 4930 1595 4930
Connection ~ 1400 4930
$EndSCHEMATC
